<?xml version="1.0" encoding="UTF-8" standalone="no"?>
<svg
   xmlns:dc="http://purl.org/dc/elements/1.1/"
   xmlns:cc="http://creativecommons.org/ns#"
   xmlns:rdf="http://www.w3.org/1999/02/22-rdf-syntax-ns#"
   xmlns:svg="http://www.w3.org/2000/svg"
   xmlns="http://www.w3.org/2000/svg"
   version="1.1"
   id="svg2"
   viewBox="0 0 480 480.00001"
   height="480"
   width="480">
  <defs
     id="defs4" />
  <metadata
     id="metadata7">
    <rdf:RDF>
      <cc:Work
         rdf:about="">
        <dc:format>image/svg+xml</dc:format>
        <dc:type
           rdf:resource="http://purl.org/dc/dcmitype/StillImage" />
        <dc:title></dc:title>
      </cc:Work>
    </rdf:RDF>
  </metadata>
  <g
     transform="translate(0,-572.36216)"
     id="layer1">
    <g
       transform="matrix(0.28021081,0,0,0.27234355,6.0222109,762.21059)"
       id="layer1-9">
      <path
         id="path3347"
         d="m 578.81752,968.36903 c -60.30733,-7.6912 -106.96813,-62.8909 -107.10779,-126.7085 -0.15512,-70.9589 56.82355,-128.1658 127.6548,-128.1658 47.55902,0 88.98171,24.6726 112.16115,66.8064 10.83826,19.701 11.78003,24.6313 11.78003,61.6712 0,31.6651 -1.5998,43.2661 -7.49461,54.3489 -28.67809,53.9174 -77.56323,79.6271 -136.99358,72.0478 z m 769.91748,0.074 c -40.3261,-6.1949 -79.4299,-36.7056 -96.9624,-75.6548 -11.642,-25.8637 -11.704,-75.6325 -0.1279,-101.3433 17.1798,-38.1515 48.2943,-63.9944 90.0016,-74.7535 28.9719,-7.4737 52.2496,-5.0833 81.9176,8.4122 77.0497,35.0489 97.8079,138.4849 40.4691,201.6578 -31.1212,34.2879 -70.5776,48.5517 -115.2992,41.6816 z M 448.49232,622.58139 C 427.93261,616.34782 409.38901,601.74288 398.68716,583.35486 388.99481,566.70137 380.44143,519.38552 307.5987,79.468828 l -80.39163,-485.506688 -71.79883,-2.01292 c -69.420687,-1.94626 -72.419224,-2.38012 -90.528547,-13.09952 -51.410707,-30.43124 -58.3526156,-99.47149 -13.949015,-138.72886 23.429195,-20.71383 33.303748,-21.97251 161.282712,-20.55831 l 116.60963,1.28851 17.32677,12.25631 c 25.66462,18.15416 33.62327,36.23883 44.27706,100.61188 l 9.30398,56.21707 605.57677,2.01292 c 554.5471,1.84331 606.5872,2.57629 617.5708,8.69875 26.3571,14.69185 45.9782,45.77633 45.9782,72.8406 0,19.70113 -86.7824,627.39652 -91.3074,639.3802 -6.0344,15.98238 -24.1762,35.53761 -40.9734,44.16648 -14.9709,7.69044 -26.9093,7.87514 -509.0191,7.87514 -284.53527,0 -494.62163,1.51959 -495.89047,3.58686 -1.21087,1.97283 0.78391,21.90073 4.43286,44.28424 l 6.63437,40.69737 440.12008,0.0242 c 273.22306,0.0121 445.42656,1.50917 454.11316,3.94307 62.4983,17.51067 80.6221,105.9388 30.2772,147.72532 -8.1041,6.72642 -21.589,14.29765 -29.9662,16.82503 -18.0773,5.45369 -970.86832,6.01896 -988.78538,0.58665 z m 279.89047,-514.31826 1.07911,-85.549092 -128.0188,0 c -99.74308,0 -128.02149,1.11149 -128.03105,5.0323 -0.016,6.501 24.03806,156.395162 26.17461,163.109382 1.26796,3.98469 26.25945,4.86209 114.66924,4.02584 l 113.04787,-1.06935 1.07902,-85.54908 z m 340.75861,1.00646 0,-86.555552 -127.9393,0 -127.93929,0 0,86.555552 0,86.55554 127.93929,0 127.9393,0 0,-86.55554 z m 355.8318,81.52325 c 4e-4,-2.76777 4.4567,-35.82998 9.9029,-73.47157 5.4462,-37.641602 10.7305,-74.327071 11.7424,-81.523252 l 1.84,-13.08398 -145.6793,0 -145.6797,0 0,86.555552 0,86.55554 133.9365,0 c 104.4836,0 133.9368,-1.10662 133.9372,-5.03229 z m -822.61009,-256.592319 126.93969,-0.0547 0,-84.542631 0,-84.54263 -150.10994,0 -150.11,0 2.17588,13.08398 c 20.23235,121.6624 26.17318,157.807881 26.17318,159.244421 0,0.94695 4.04807,0.6294 8.99573,-0.70569 4.94764,-1.33513 66.11861,-2.45226 135.93546,-2.4825 z m 466.77829,-84.597581 0,-84.54263 -127.9393,0 -127.93929,0 0,84.54263 0,84.542631 127.93929,0 127.9393,0 0,-84.542631 z m 393.354,73.471571 c 1.1966,-6.08908 5.834,-38.245471 10.3059,-71.458651 4.4723,-33.21317 9.1153,-66.27538 10.3179,-73.47157 l 2.1873,-13.08398 -164.1037,0 -164.1033,0 0,84.54263 0,84.542631 151.6105,0 151.61,0 2.1754,-11.07106 z"
         />
    </g>
  </g>
</svg>
