<svg
 xmlns="http://www.w3.org/2000/svg"
 xmlns:xlink="http://www.w3.org/1999/xlink"
 width="474px" height="222px">
<path fill-rule="evenodd"  opacity="0.039" fill="rgb(0, 57, 100)"
 d="M440.520,219.258 L440.520,104.773 L369.580,219.258 L334.170,219.258 L334.170,43.882 L367.307,43.882 L367.307,160.640 L438.367,43.882 L473.657,43.882 L473.657,219.258 L440.520,219.258 ZM404.153,35.030 C393.545,35.030 384.911,31.940 378.253,25.758 C371.593,19.579 367.786,11.065 366.829,0.218 L383.218,0.218 C383.775,5.881 385.769,10.167 389.199,13.078 C392.627,15.990 397.613,17.444 404.153,17.444 C410.691,17.444 415.677,15.990 419.107,13.078 C422.535,10.167 424.529,5.881 425.088,0.218 L441.477,0.218 C440.520,11.065 436.711,19.579 430.053,25.758 C423.393,31.940 414.759,35.030 404.153,35.030 ZM236.912,210.107 C230.213,217.643 221.558,221.412 210.952,221.412 C200.503,221.412 192.329,220.733 186.428,219.378 L186.428,193.059 C191.453,193.379 195.999,193.538 200.066,193.538 C208.279,193.538 214.162,192.043 217.711,189.052 C221.259,186.061 224.668,179.622 227.940,169.732 L163.460,43.882 L203.057,43.882 L243.970,134.920 L278.901,43.882 L315.867,43.882 L256.651,177.149 C250.191,191.585 243.611,202.570 236.912,210.107 ZM120.393,219.258 L81.514,158.606 L42.515,219.258 L0.047,219.258 L59.981,127.742 L5.669,43.882 L47.061,43.882 L82.232,100.227 L116.685,43.882 L157.717,43.882 L103.167,129.058 L163.101,219.258 L120.393,219.258 Z"/>
</svg>